{
    "data": [{ "id": 1, "title": "Arithmetic Operators", "question": "Fill in the blanks to subtract one number from the other.\n<?php\n$num1 = 23;\n___num2 = 16;\necho $num1___$___;\n?>", "choice": [
        { "description": "$ and - and num2", "id": 1 },
        { "description": "$ and * and num2", "id": 2 },
        { "description": "@ and _ and num2", "id": 3 }
      ], "answer": "$ and - and num2" }, 
      { "id": 2, "title": "Arithmetic Operators", "question": "What would the value of the variable $num be after the following code?\n<?php\n$num = 9;\n$num = $num%2;\n?>", "choice": [
        { "description": "4", "id": 1 },
        { "description": "0", "id": 2 },
        { "description": "1", "id": 3 }
      ], "answer": "1" },
      { "id": 3, "title": "Arithmetic Operators", "question": "What output results from the following code?\n<?php\n$num = 18; \n$num--;\necho $num;\n?>", "choice": [
        { "description": "17", "id": 1 },
        { "description": "18", "id": 2 },
        { "description": "19", "id": 3 }
      ], "answer": "17" }, 
      { "id": 4, "title": "Arithmetic Operators", "question": "What output results from the following code?\n\n\n<?php\n$a = 7; $b = 3;\n$a += $b;\necho $a;\n?>", "choice": [
        { "description": "3", "id": 1 },
        { "description": "7", "id": 2 },
        { "description": "10", "id": 3 }
      ], "answer": "10" },
      { "id": 5, "title": "Assignment Operators", "question": "What output results from the following code?\n<?php \n$a = 7; $b = 3; \n$a += $b;\necho $a;\n?>", "choice": [
        { "description": "10", "id": 1 },
        { "description": "11", "id": 2 },
        { "description": "9", "id": 3 }
      ], "answer": "10" },
      { "id": 6, "title": "Comparison Operators", "question": "Which of the following returns TRUE, if $num1=4; $num2=8?", "choice": [
        { "description": "$num1 == $num2;", "id": 1 },
        { "description": "$num1 != $num2;", "id": 2 },
        { "description": "$num1 > $num2;", "id": 3 }
      ], "answer": "$num1 != $num2;" },
      { "id": 7, "title": "Logical Operators", "question": "What is the return value of the following expression, if $num1 = 5 and $num2 = 3?\n($num1 >1 && $num2 < $num1)", "choice": [
        { "description": "FALSE", "id": 1 },
        { "description": "NONE", "id": 2 },
        { "description": "TRUE", "id": 3 }
      ], "answer": "TRUE" }
    ]
}